/* XPM */
static const char * openframes_xpm[] = {
"16 16 83 1",
" 	c None",
".	c #FFFFFF",
"+	c #B64646",
"@	c #C46C6C",
"#	c #FFFEFE",
"$	c #B33939",
"%	c #AC5B5A",
"&	c #9C1C1C",
"*	c #AF0000",
"=	c #C9C1C1",
"-	c #FDFCFC",
";	c #810101",
">	c #C50101",
",	c #FEFDFD",
"'	c #E4D6D6",
")	c #940000",
"!	c #D2BEBE",
"~	c #FDFBFB",
"{	c #FCFFFF",
"]	c #B79090",
"^	c #D2B3B4",
"/	c #8B1818",
"(	c #A75151",
"_	c #FDFBFC",
":	c #F0DFDE",
"<	c #7C0000",
"[	c #540000",
"}	c #FAF7F7",
"|	c #AE7B7B",
"1	c #9A1515",
"2	c #B29696",
"3	c #880000",
"4	c #B24A49",
"5	c #DCCCCC",
"6	c #9D0000",
"7	c #C7BFBF",
"8	c #D5BDBD",
"9	c #FFFEFD",
"0	c #F0F1F1",
"a	c #8B0000",
"b	c #C8AAAB",
"c	c #E5E5E5",
"d	c #790000",
"e	c #C49493",
"f	c #8B2E2F",
"g	c #9E3C3C",
"h	c #F1FFFF",
"i	c #770000",
"j	c #B66D6D",
"k	c #FEFEFE",
"l	c #C1A5A5",
"m	c #980202",
"n	c #7B0A0A",
"o	c #B25252",
"p	c #EFE8E8",
"q	c #A20000",
"r	c #8E0303",
"s	c #823434",
"t	c #B5A2A2",
"u	c #F6FAFA",
"v	c #F5E9E9",
"w	c #CE9E9E",
"x	c #A63636",
"y	c #A30000",
"z	c #940E0E",
"A	c #842929",
"B	c #A38484",
"C	c #E4EDED",
"D	c #874D4D",
"E	c #F8F7F7",
"F	c #E9D4D4",
"G	c #CC9292",
"H	c #A83535",
"I	c #980000",
"J	c #C30202",
"K	c #8E0D0D",
"L	c #C3B0B0",
"M	c #F8F9F9",
"N	c #CD8181",
"O	c #B41B1C",
"P	c #C93434",
"Q	c #C03434",
"R	c #D18888",
"...++...........",
"@.#.+...........",
"$%..++...#.+.+..",
"&*=-......#.+...",
";>+.....,...+...",
"')!~....{]^.....",
"./(#.._:<[}-....",
".|1....234......",
"#56...7<8.9.....",
",0ab.cde.,...+.+",
"..fghij.k.....+.",
"..lmno.##....+.+",
".#pqrstu..~,....",
"...vwx6yzABCD.,.",
"......EFGHI*JKL.",
"......k#..MNOPQR"};
